{
	"message": "Cortes de caja encontrado",
	"data": {
		"current_page": 1,
		"data": [
			{
				"id": "9ea33867-0b31-4081-a8ba-b042f504380f",
				"opening": "2025-04-09 16:43:51",
				"close": "2025-04-09 17:15:55",
				"inicial_cash": 0,
				"final_cash": 20,
				"orders": 2,
				"sales_cash": 35,
				"sales_no_cash": 0,
				"sales_total": 35,
				"sales_total_discount": 0,
				"sales_cash_retention": 0,
				"sales_no_cash_retention": 0,
				"sales_total_retention": 0,
				"bills_cash": 0,
				"bills_no_cash": 0,
				"bills_total": 0,
				"remittances": 0,
				"payments_payable_cash": 0,
				"payments_payable_no_cash": 0,
				"payments_payable_total": 0,
				"payments_receivable_cash": 0,
				"payments_receivable_no_cash": 0,
				"payments_receivable_total": 0,
				"tips_cash": 0,
				"tips_no_cash": 0,
				"tips_total": 0,
				"cash_incomes": 35,
				"cash_expenses": 0,
				"cash_diference": -15,
				"cashdrawers_id": "9e99a1f1-c680-4f4e-8d30-8c4386974154",
				"employee_id": "9e99a1f1-e600-4c44-9880-c8ca2e11cec5",
				"status": 2,
				"deleted_at": null,
				"created_at": "2025-04-09T22:43:51.000000Z",
				"updated_at": "2025-07-24T09:46:32.000000Z",
				"employee": {
					"id": "9e99a1f1-e600-4c44-9880-c8ca2e11cec5",
					"name": "Administración",
					"email": "connect@hibridosv.com",
					"email_verified_at": "2025-04-05T04:20:41.000000Z",
					"is_visible": 0,
					"status": 1,
					"created_at": "2025-04-05T04:20:41.000000Z",
					"updated_at": "2025-04-05T04:20:41.000000Z"
				},
				"cashdrawer": {
					"id": "9e99a1f1-c680-4f4e-8d30-8c4386974154",
					"name": "Caja uno",
					"employee_id": null,
					"printer": null,
					"status": 1,
					"created_at": "2025-04-05T04:20:41.000000Z",
					"updated_at": "2025-09-16T14:25:25.000000Z"
				}
			},
			{
				"id": "9ea34461-b171-4d8d-83e2-dad508e68be7",
				"opening": "2025-04-09 17:17:21",
				"close": "2025-04-09 17:17:24",
				"inicial_cash": 100,
				"final_cash": 100,
				"orders": 0,
				"sales_cash": 0,
				"sales_no_cash": 0,
				"sales_total": 0,
				"sales_total_discount": 0,
				"sales_cash_retention": 0,
				"sales_no_cash_retention": 0,
				"sales_total_retention": 0,
				"bills_cash": 0,
				"bills_no_cash": 0,
				"bills_total": 0,
				"remittances": 0,
				"payments_payable_cash": 0,
				"payments_payable_no_cash": 0,
				"payments_payable_total": 0,
				"payments_receivable_cash": 0,
				"payments_receivable_no_cash": 0,
				"payments_receivable_total": 0,
				"tips_cash": 0,
				"tips_no_cash": 0,
				"tips_total": 0,
				"cash_incomes": 100,
				"cash_expenses": 0,
				"cash_diference": 0,
				"cashdrawers_id": "9e99a1f1-c680-4f4e-8d30-8c4386974154",
				"employee_id": "9e99a1f1-e600-4c44-9880-c8ca2e11cec5",
				"status": 2,
				"deleted_at": null,
				"created_at": "2025-04-09T23:17:21.000000Z",
				"updated_at": "2025-07-24T09:46:32.000000Z",
				"employee": {
					"id": "9e99a1f1-e600-4c44-9880-c8ca2e11cec5",
					"name": "Administración",
					"email": "connect@hibridosv.com",
					"email_verified_at": "2025-04-05T04:20:41.000000Z",
					"is_visible": 0,
					"status": 1,
					"created_at": "2025-04-05T04:20:41.000000Z",
					"updated_at": "2025-04-05T04:20:41.000000Z"
				},
				"cashdrawer": {
					"id": "9e99a1f1-c680-4f4e-8d30-8c4386974154",
					"name": "Caja uno",
					"employee_id": null,
					"printer": null,
					"status": 1,
					"created_at": "2025-04-05T04:20:41.000000Z",
					"updated_at": "2025-09-16T14:25:25.000000Z"
				}
			},
			{
				"id": "9ea57a41-671f-4ea9-9432-e3923eda2b37",
				"opening": "2025-04-10 19:39:38",
				"close": "2025-07-15 11:17:46",
				"inicial_cash": 0,
				"final_cash": 100,
				"orders": 3,
				"sales_cash": 34,
				"sales_no_cash": 0,
				"sales_total": 34,
				"sales_total_discount": 0,
				"sales_cash_retention": 0,
				"sales_no_cash_retention": 0,
				"sales_total_retention": 0,
				"bills_cash": 0,
				"bills_no_cash": 0,
				"bills_total": 0,
				"remittances": 0,
				"payments_payable_cash": 0,
				"payments_payable_no_cash": 0,
				"payments_payable_total": 0,
				"payments_receivable_cash": 0,
				"payments_receivable_no_cash": 0,
				"payments_receivable_total": 0,
				"tips_cash": 0,
				"tips_no_cash": 0,
				"tips_total": 0,
				"cash_incomes": 37.4,
				"cash_expenses": 0,
				"cash_diference": 62.6,
				"cashdrawers_id": "9e99a1f1-c680-4f4e-8d30-8c4386974154",
				"employee_id": "9e99a1f1-e600-4c44-9880-c8ca2e11cec5",
				"status": 2,
				"deleted_at": null,
				"created_at": "2025-04-11T01:39:38.000000Z",
				"updated_at": "2025-07-24T09:46:32.000000Z",
				"employee": {
					"id": "9e99a1f1-e600-4c44-9880-c8ca2e11cec5",
					"name": "Administración",
					"email": "connect@hibridosv.com",
					"email_verified_at": "2025-04-05T04:20:41.000000Z",
					"is_visible": 0,
					"status": 1,
					"created_at": "2025-04-05T04:20:41.000000Z",
					"updated_at": "2025-04-05T04:20:41.000000Z"
				},
				"cashdrawer": {
					"id": "9e99a1f1-c680-4f4e-8d30-8c4386974154",
					"name": "Caja uno",
					"employee_id": null,
					"printer": null,
					"status": 1,
					"created_at": "2025-04-05T04:20:41.000000Z",
					"updated_at": "2025-09-16T14:25:25.000000Z"
				}
			},
			{
				"id": "9f65e6a6-0fbd-4b9f-9532-4e343900ab9d",
				"opening": "2025-07-15 11:17:54",
				"close": "2025-07-15 11:21:46",
				"inicial_cash": 0,
				"final_cash": 100,
				"orders": 0,
				"sales_cash": 0,
				"sales_no_cash": 0,
				"sales_total": 0,
				"sales_total_discount": 0,
				"sales_cash_retention": 0,
				"sales_no_cash_retention": 0,
				"sales_total_retention": 0,
				"bills_cash": 0,
				"bills_no_cash": 0,
				"bills_total": 0,
				"remittances": 0,
				"payments_payable_cash": 0,
				"payments_payable_no_cash": 0,
				"payments_payable_total": 0,
				"payments_receivable_cash": 0,
				"payments_receivable_no_cash": 0,
				"payments_receivable_total": 0,
				"tips_cash": 0,
				"tips_no_cash": 0,
				"tips_total": 0,
				"cash_incomes": 0,
				"cash_expenses": 0,
				"cash_diference": 100,
				"cashdrawers_id": "9e99a1f1-c680-4f4e-8d30-8c4386974154",
				"employee_id": "9e99a1f1-e600-4c44-9880-c8ca2e11cec5",
				"status": 2,
				"deleted_at": null,
				"created_at": "2025-07-15T17:21:41.000000Z",
				"updated_at": "2025-07-24T09:46:32.000000Z",
				"employee": {
					"id": "9e99a1f1-e600-4c44-9880-c8ca2e11cec5",
					"name": "Administración",
					"email": "connect@hibridosv.com",
					"email_verified_at": "2025-04-05T04:20:41.000000Z",
					"is_visible": 0,
					"status": 1,
					"created_at": "2025-04-05T04:20:41.000000Z",
					"updated_at": "2025-04-05T04:20:41.000000Z"
				},
				"cashdrawer": {
					"id": "9e99a1f1-c680-4f4e-8d30-8c4386974154",
					"name": "Caja uno",
					"employee_id": null,
					"printer": null,
					"status": 1,
					"created_at": "2025-04-05T04:20:41.000000Z",
					"updated_at": "2025-09-16T14:25:25.000000Z"
				}
			},
			{
				"id": "9f65e6da-53b8-4c84-9870-adfbe086a515",
				"opening": "2025-07-15 11:22:15",
				"close": "2025-07-19 17:52:05",
				"inicial_cash": 0,
				"final_cash": 100,
				"orders": 5,
				"sales_cash": 45.5,
				"sales_no_cash": 0,
				"sales_total": 45.5,
				"sales_total_discount": 0,
				"sales_cash_retention": 0,
				"sales_no_cash_retention": 0,
				"sales_total_retention": 0,
				"bills_cash": 0,
				"bills_no_cash": 0,
				"bills_total": 0,
				"remittances": 0,
				"payments_payable_cash": 0,
				"payments_payable_no_cash": 0,
				"payments_payable_total": 0,
				"payments_receivable_cash": 0,
				"payments_receivable_no_cash": 0,
				"payments_receivable_total": 0,
				"tips_cash": 0,
				"tips_no_cash": 0,
				"tips_total": 0,
				"cash_incomes": 50.05,
				"cash_expenses": 0,
				"cash_diference": 49.95,
				"cashdrawers_id": "9e99a1f1-c680-4f4e-8d30-8c4386974154",
				"employee_id": "9e99a1f1-e600-4c44-9880-c8ca2e11cec5",
				"status": 2,
				"deleted_at": null,
				"created_at": "2025-07-15T17:22:15.000000Z",
				"updated_at": "2025-07-24T09:46:32.000000Z",
				"employee": {
					"id": "9e99a1f1-e600-4c44-9880-c8ca2e11cec5",
					"name": "Administración",
					"email": "connect@hibridosv.com",
					"email_verified_at": "2025-04-05T04:20:41.000000Z",
					"is_visible": 0,
					"status": 1,
					"created_at": "2025-04-05T04:20:41.000000Z",
					"updated_at": "2025-04-05T04:20:41.000000Z"
				},
				"cashdrawer": {
					"id": "9e99a1f1-c680-4f4e-8d30-8c4386974154",
					"name": "Caja uno",
					"employee_id": null,
					"printer": null,
					"status": 1,
					"created_at": "2025-04-05T04:20:41.000000Z",
					"updated_at": "2025-09-16T14:25:25.000000Z"
				}
			},
			{
				"id": "9f6e809b-504c-4dfc-b410-a91ded5db56d",
				"opening": "2025-07-19 17:58:48",
				"close": "2025-07-19 17:59:03",
				"inicial_cash": 0,
				"final_cash": 12,
				"orders": 1,
				"sales_cash": 12,
				"sales_no_cash": 0,
				"sales_total": 12,
				"sales_total_discount": 0,
				"sales_cash_retention": 0,
				"sales_no_cash_retention": 0,
				"sales_total_retention": 0,
				"bills_cash": 0,
				"bills_no_cash": 0,
				"bills_total": 0,
				"remittances": 0,
				"payments_payable_cash": 0,
				"payments_payable_no_cash": 0,
				"payments_payable_total": 0,
				"payments_receivable_cash": 0,
				"payments_receivable_no_cash": 0,
				"payments_receivable_total": 0,
				"tips_cash": 0,
				"tips_no_cash": 0,
				"tips_total": 0,
				"cash_incomes": 12,
				"cash_expenses": 0,
				"cash_diference": 0,
				"cashdrawers_id": "9e99a1f1-c680-4f4e-8d30-8c4386974154",
				"employee_id": "9e99a1f1-e600-4c44-9880-c8ca2e11cec5",
				"status": 2,
				"deleted_at": null,
				"created_at": "2025-07-19T23:58:48.000000Z",
				"updated_at": "2025-07-24T09:46:32.000000Z",
				"employee": {
					"id": "9e99a1f1-e600-4c44-9880-c8ca2e11cec5",
					"name": "Administración",
					"email": "connect@hibridosv.com",
					"email_verified_at": "2025-04-05T04:20:41.000000Z",
					"is_visible": 0,
					"status": 1,
					"created_at": "2025-04-05T04:20:41.000000Z",
					"updated_at": "2025-04-05T04:20:41.000000Z"
				},
				"cashdrawer": {
					"id": "9e99a1f1-c680-4f4e-8d30-8c4386974154",
					"name": "Caja uno",
					"employee_id": null,
					"printer": null,
					"status": 1,
					"created_at": "2025-04-05T04:20:41.000000Z",
					"updated_at": "2025-09-16T14:25:25.000000Z"
				}
			},
			{
				"id": "9f6ec41d-ae06-46f3-be12-19bb36106808",
				"opening": "2025-07-19 21:07:34",
				"close": "2025-07-19 23:01:14",
				"inicial_cash": 0,
				"final_cash": 100,
				"orders": 1,
				"sales_cash": 20.25,
				"sales_no_cash": 0,
				"sales_total": 20.25,
				"sales_total_discount": 0,
				"sales_cash_retention": 0,
				"sales_no_cash_retention": 0,
				"sales_total_retention": 0,
				"bills_cash": 0,
				"bills_no_cash": 0,
				"bills_total": 0,
				"remittances": 0,
				"payments_payable_cash": 0,
				"payments_payable_no_cash": 0,
				"payments_payable_total": 0,
				"payments_receivable_cash": 0,
				"payments_receivable_no_cash": 0,
				"payments_receivable_total": 0,
				"tips_cash": 0,
				"tips_no_cash": 0,
				"tips_total": 0,
				"cash_incomes": 22.275,
				"cash_expenses": 0,
				"cash_diference": 77.725,
				"cashdrawers_id": "9e99a1f1-c680-4f4e-8d30-8c4386974154",
				"employee_id": "9e99a1f1-e600-4c44-9880-c8ca2e11cec5",
				"status": 0,
				"deleted_at": "2025-07-19 23:01:36",
				"created_at": "2025-07-20T03:07:34.000000Z",
				"updated_at": "2025-07-24T09:46:32.000000Z",
				"employee": {
					"id": "9e99a1f1-e600-4c44-9880-c8ca2e11cec5",
					"name": "Administración",
					"email": "connect@hibridosv.com",
					"email_verified_at": "2025-04-05T04:20:41.000000Z",
					"is_visible": 0,
					"status": 1,
					"created_at": "2025-04-05T04:20:41.000000Z",
					"updated_at": "2025-04-05T04:20:41.000000Z"
				},
				"cashdrawer": {
					"id": "9e99a1f1-c680-4f4e-8d30-8c4386974154",
					"name": "Caja uno",
					"employee_id": null,
					"printer": null,
					"status": 1,
					"created_at": "2025-04-05T04:20:41.000000Z",
					"updated_at": "2025-09-16T14:25:25.000000Z"
				}
			},
			{
				"id": "9f6eece4-d96c-45f7-b08e-c18ffc35afc7",
				"opening": "2025-07-19 21:07:34",
				"close": "2025-07-19 23:04:32",
				"inicial_cash": 0,
				"final_cash": 0,
				"orders": 1,
				"sales_cash": 20.25,
				"sales_no_cash": 0,
				"sales_total": 20.25,
				"sales_total_discount": 0,
				"sales_cash_retention": 0,
				"sales_no_cash_retention": 0,
				"sales_total_retention": 0,
				"bills_cash": 0,
				"bills_no_cash": 0,
				"bills_total": 0,
				"remittances": 0,
				"payments_payable_cash": 0,
				"payments_payable_no_cash": 0,
				"payments_payable_total": 0,
				"payments_receivable_cash": 0,
				"payments_receivable_no_cash": 0,
				"payments_receivable_total": 0,
				"tips_cash": 0,
				"tips_no_cash": 0,
				"tips_total": 0,
				"cash_incomes": 22.275,
				"cash_expenses": 0,
				"cash_diference": -22.275,
				"cashdrawers_id": "9e99a1f1-c680-4f4e-8d30-8c4386974154",
				"employee_id": "9e99a1f1-e600-4c44-9880-c8ca2e11cec5",
				"status": 0,
				"deleted_at": "2025-07-19 23:04:44",
				"created_at": "2025-07-20T05:01:36.000000Z",
				"updated_at": "2025-07-24T09:46:32.000000Z",
				"employee": {
					"id": "9e99a1f1-e600-4c44-9880-c8ca2e11cec5",
					"name": "Administración",
					"email": "connect@hibridosv.com",
					"email_verified_at": "2025-04-05T04:20:41.000000Z",
					"is_visible": 0,
					"status": 1,
					"created_at": "2025-04-05T04:20:41.000000Z",
					"updated_at": "2025-04-05T04:20:41.000000Z"
				},
				"cashdrawer": {
					"id": "9e99a1f1-c680-4f4e-8d30-8c4386974154",
					"name": "Caja uno",
					"employee_id": null,
					"printer": null,
					"status": 1,
					"created_at": "2025-04-05T04:20:41.000000Z",
					"updated_at": "2025-09-16T14:25:25.000000Z"
				}
			},
			{
				"id": "9f6eee04-6706-4b0d-a702-bd31c5125232",
				"opening": "2025-07-19 21:07:34",
				"close": "2025-07-24 03:59:24",
				"inicial_cash": 0,
				"final_cash": 25,
				"orders": 11,
				"sales_cash": 134.75,
				"sales_no_cash": 0,
				"sales_total": 134.75,
				"sales_total_discount": 0,
				"sales_cash_retention": 0,
				"sales_no_cash_retention": 0,
				"sales_total_retention": 0,
				"bills_cash": 0,
				"bills_no_cash": 0,
				"bills_total": 0,
				"remittances": 0,
				"payments_payable_cash": 0,
				"payments_payable_no_cash": 0,
				"payments_payable_total": 0,
				"payments_receivable_cash": 0,
				"payments_receivable_no_cash": 0,
				"payments_receivable_total": 0,
				"tips_cash": 9.625,
				"tips_no_cash": 0,
				"tips_total": 9.625,
				"cash_incomes": 144.375,
				"cash_expenses": 0,
				"cash_diference": -119.375,
				"cashdrawers_id": "9e99a1f1-c680-4f4e-8d30-8c4386974154",
				"employee_id": "9e99a1f1-e600-4c44-9880-c8ca2e11cec5",
				"status": 2,
				"deleted_at": null,
				"created_at": "2025-07-20T05:04:44.000000Z",
				"updated_at": "2025-07-24T09:59:24.000000Z",
				"employee": {
					"id": "9e99a1f1-e600-4c44-9880-c8ca2e11cec5",
					"name": "Administración",
					"email": "connect@hibridosv.com",
					"email_verified_at": "2025-04-05T04:20:41.000000Z",
					"is_visible": 0,
					"status": 1,
					"created_at": "2025-04-05T04:20:41.000000Z",
					"updated_at": "2025-04-05T04:20:41.000000Z"
				},
				"cashdrawer": {
					"id": "9e99a1f1-c680-4f4e-8d30-8c4386974154",
					"name": "Caja uno",
					"employee_id": null,
					"printer": null,
					"status": 1,
					"created_at": "2025-04-05T04:20:41.000000Z",
					"updated_at": "2025-09-16T14:25:25.000000Z"
				}
			},
			{
				"id": "9f77637c-9085-4388-a1eb-074b4c0e0c29",
				"opening": "2025-07-24 03:59:50",
				"close": "2025-07-24 04:00:26",
				"inicial_cash": 0,
				"final_cash": 9.63,
				"orders": 1,
				"sales_cash": 8.75,
				"sales_no_cash": 0,
				"sales_total": 8.75,
				"sales_total_discount": 0,
				"sales_cash_retention": 0,
				"sales_no_cash_retention": 0,
				"sales_total_retention": 0,
				"bills_cash": 0,
				"bills_no_cash": 0,
				"bills_total": 0,
				"remittances": 0,
				"payments_payable_cash": 0,
				"payments_payable_no_cash": 0,
				"payments_payable_total": 0,
				"payments_receivable_cash": 0,
				"payments_receivable_no_cash": 0,
				"payments_receivable_total": 0,
				"tips_cash": 0.875,
				"tips_no_cash": 0,
				"tips_total": 0.875,
				"cash_incomes": 9.625,
				"cash_expenses": 0,
				"cash_diference": 0.0050000000000008,
				"cashdrawers_id": "9e99a1f1-c680-4f4e-8d30-8c4386974154",
				"employee_id": "9e99a1f1-e600-4c44-9880-c8ca2e11cec5",
				"status": 2,
				"deleted_at": null,
				"created_at": "2025-07-24T09:59:50.000000Z",
				"updated_at": "2025-07-24T10:00:26.000000Z",
				"employee": {
					"id": "9e99a1f1-e600-4c44-9880-c8ca2e11cec5",
					"name": "Administración",
					"email": "connect@hibridosv.com",
					"email_verified_at": "2025-04-05T04:20:41.000000Z",
					"is_visible": 0,
					"status": 1,
					"created_at": "2025-04-05T04:20:41.000000Z",
					"updated_at": "2025-04-05T04:20:41.000000Z"
				},
				"cashdrawer": {
					"id": "9e99a1f1-c680-4f4e-8d30-8c4386974154",
					"name": "Caja uno",
					"employee_id": null,
					"printer": null,
					"status": 1,
					"created_at": "2025-04-05T04:20:41.000000Z",
					"updated_at": "2025-09-16T14:25:25.000000Z"
				}
			}
		],
		"first_page_url": "http://connect.test/api/v2/cuts?page=1",
		"from": 1,
		"last_page": 2,
		"last_page_url": "http://connect.test/api/v2/cuts?page=2",
		"links": [
			{
				"url": null,
				"label": "Anterior",
				"active": false
			},
			{
				"url": "http://connect.test/api/v2/cuts?page=1",
				"label": "1",
				"active": true
			},
			{
				"url": "http://connect.test/api/v2/cuts?page=2",
				"label": "2",
				"active": false
			},
			{
				"url": "http://connect.test/api/v2/cuts?page=2",
				"label": "Siguiente",
				"active": false
			}
		],
		"next_page_url": "http://connect.test/api/v2/cuts?page=2",
		"path": "http://connect.test/api/v2/cuts",
		"per_page": 10,
		"prev_page_url": null,
		"to": 10,
		"total": 18
	},
	"type": "successful"
}